[gd_scene load_steps=7 format=2]

[ext_resource path="res://assets/fonts/8bitOperatorPlus-Bold.ttf" type="DynamicFontData" id=1]
[ext_resource path="res://assets/logo/fbkgames.png" type="Texture" id=2]
[ext_resource path="res://scenes/intro.gd" type="Script" id=3]
[ext_resource path="res://assets/logo/ansimuz.png" type="Texture" id=4]

[sub_resource type="DynamicFont" id=1]
size = 12
font_data = ExtResource( 1 )

[sub_resource type="Animation" id=2]
resource_name = "default"
length = 15.0
tracks/0/type = "bezier"
tracks/0/path = NodePath("Label:modulate:a")
tracks/0/interp = 1
tracks/0/loop_wrap = true
tracks/0/imported = false
tracks/0/enabled = true
tracks/0/keys = {
"points": PoolRealArray( 0, -0.25, 0, 0.25, 0, 1, -0.25, 0, 0.25, 0, 1, -0.25, 0, 0.25, 0, 0, -0.25, 0, 0.25, 0 ),
"times": PoolRealArray( 1, 2, 5, 6 )
}
tracks/1/type = "bezier"
tracks/1/path = NodePath("fbkgames:position:x")
tracks/1/interp = 1
tracks/1/loop_wrap = true
tracks/1/imported = false
tracks/1/enabled = true
tracks/1/keys = {
"points": PoolRealArray( 800, -0.25, 0, 0.25, 0, 256, -0.25, 0, 0.25, 0, 256, -0.25, 0, 0.25, 0, -256, -0.25, 0, 0.25, 0 ),
"times": PoolRealArray( 6, 7, 9, 10 )
}
tracks/2/type = "method"
tracks/2/path = NodePath(".")
tracks/2/interp = 1
tracks/2/loop_wrap = true
tracks/2/imported = false
tracks/2/enabled = true
tracks/2/keys = {
"times": PoolRealArray( 15 ),
"transitions": PoolRealArray( 1 ),
"values": [ {
"args": [  ],
"method": "next"
} ]
}
tracks/3/type = "bezier"
tracks/3/path = NodePath("ansimuz:position:y")
tracks/3/interp = 1
tracks/3/loop_wrap = true
tracks/3/imported = false
tracks/3/enabled = true
tracks/3/keys = {
"points": PoolRealArray( 336, -0.25, 0, 0.25, 0, 144, -0.719999, -122.218, 0.0786529, 13.3511 ),
"times": PoolRealArray( 10, 11 )
}
tracks/4/type = "bezier"
tracks/4/path = NodePath(".:modulate:a")
tracks/4/interp = 1
tracks/4/loop_wrap = true
tracks/4/imported = false
tracks/4/enabled = true
tracks/4/keys = {
"points": PoolRealArray( 1, -0.25, 0, 0.25, 0, 0, -0.25, 0, 0.25, 0 ),
"times": PoolRealArray( 13, 14.5 )
}

[node name="intro" type="Node2D"]
script = ExtResource( 3 )

[node name="ansimuz" type="Sprite" parent="."]
position = Vector2( 256, 336 )
texture = ExtResource( 4 )

[node name="Label" type="Label" parent="."]
margin_right = 510.0
margin_bottom = 299.0
custom_fonts/font = SubResource( 1 )
text = "Copyright (C) 2022
Kris Occhipinti

This program is free software: you can redistribute it and/or modify
it under the terms of the GNU General Public License as published by
the Free Software Foundation,  version 3 of the License.

This program is distributed in the hope that it will be useful,
but WITHOUT ANY WARRANTY; without even the implied warranty of
MERCHANTABILITY or FITNESS FOR A PARTICULAR PURPOSE.  See the
GNU General Public License for more details.

You should have received a copy of the GNU General Public License
along with this program.  If not, see <http://www.gnu.org/licenses/>."
align = 1
valign = 1
autowrap = true
uppercase = true
__meta__ = {
"_edit_use_anchors_": false
}

[node name="AnimationPlayer" type="AnimationPlayer" parent="."]
autoplay = "default"
anims/default = SubResource( 2 )

[node name="fbkgames" type="Sprite" parent="."]
position = Vector2( 800, 144 )
scale = Vector2( 0.5, 0.5 )
texture = ExtResource( 2 )
